%YAML 1.1
%TAG !u! tag:unity3d.com,2011:
--- !u!1001 &6284511142105162620
PrefabInstance:
  m_ObjectHideFlags: 0
  serializedVersion: 2
  m_Modification:
    m_TransformParent: {fileID: 0}
    m_Modifications:
    - target: {fileID: 4973393061988114328, guid: 5cf2c431af592d34d8910fa535688ac5,
        type: 3}
      propertyPath: m_Name
      value: SmallAsteroid
      objectReference: {fileID: 0}
    - target: {fileID: 4973393061988114334, guid: 5cf2c431af592d34d8910fa535688ac5,
        type: 3}
      propertyPath: m_LocalPosition.x
      value: 0
      objectReference: {fileID: 0}
    - target: {fileID: 4973393061988114334, guid: 5cf2c431af592d34d8910fa535688ac5,
        type: 3}
      propertyPath: m_LocalPosition.y
      value: 0
      objectReference: {fileID: 0}
    - target: {fileID: 4973393061988114334, guid: 5cf2c431af592d34d8910fa535688ac5,
        type: 3}
      propertyPath: m_LocalPosition.z
      value: 0
      objectReference: {fileID: 0}
    - target: {fileID: 4973393061988114334, guid: 5cf2c431af592d34d8910fa535688ac5,
        type: 3}
      propertyPath: m_LocalRotation.x
      value: 0
      objectReference: {fileID: 0}
    - target: {fileID: 4973393061988114334, guid: 5cf2c431af592d34d8910fa535688ac5,
        type: 3}
      propertyPath: m_LocalRotation.y
      value: 0
      objectReference: {fileID: 0}
    - target: {fileID: 4973393061988114334, guid: 5cf2c431af592d34d8910fa535688ac5,
        type: 3}
      propertyPath: m_LocalRotation.z
      value: 0
      objectReference: {fileID: 0}
    - target: {fileID: 4973393061988114334, guid: 5cf2c431af592d34d8910fa535688ac5,
        type: 3}
      propertyPath: m_LocalRotation.w
      value: 1
      objectReference: {fileID: 0}
    - target: {fileID: 4973393061988114334, guid: 5cf2c431af592d34d8910fa535688ac5,
        type: 3}
      propertyPath: m_RootOrder
      value: 0
      objectReference: {fileID: 0}
    - target: {fileID: 4973393061988114334, guid: 5cf2c431af592d34d8910fa535688ac5,
        type: 3}
      propertyPath: m_LocalEulerAnglesHint.x
      value: 0
      objectReference: {fileID: 0}
    - target: {fileID: 4973393061988114334, guid: 5cf2c431af592d34d8910fa535688ac5,
        type: 3}
      propertyPath: m_LocalEulerAnglesHint.y
      value: 0
      objectReference: {fileID: 0}
    - target: {fileID: 4973393061988114334, guid: 5cf2c431af592d34d8910fa535688ac5,
        type: 3}
      propertyPath: m_LocalEulerAnglesHint.z
      value: 0
      objectReference: {fileID: 0}
    - target: {fileID: 4973393061988114334, guid: 5cf2c431af592d34d8910fa535688ac5,
        type: 3}
      propertyPath: m_LocalScale.x
      value: 0.7
      objectReference: {fileID: 0}
    - target: {fileID: 4973393061988114334, guid: 5cf2c431af592d34d8910fa535688ac5,
        type: 3}
      propertyPath: m_LocalScale.y
      value: 0.7
      objectReference: {fileID: 0}
    - target: {fileID: 4973393061988114334, guid: 5cf2c431af592d34d8910fa535688ac5,
        type: 3}
      propertyPath: m_LocalScale.z
      value: 0.5
      objectReference: {fileID: 0}
    - target: {fileID: 4973393061988114329, guid: 5cf2c431af592d34d8910fa535688ac5,
        type: 3}
      propertyPath: smallAsteroidPrefab
      value: 
      objectReference: {fileID: 0}
    - target: {fileID: 4973393061988114329, guid: 5cf2c431af592d34d8910fa535688ac5,
        type: 3}
      propertyPath: smallSteroidCount
      value: 0
      objectReference: {fileID: 0}
    m_RemovedComponents: []
  m_SourcePrefab: {fileID: 100100000, guid: 5cf2c431af592d34d8910fa535688ac5, type: 3}
